\relax 
\providecommand\hyper@newdestlabel[2]{}
\citation{bishop2006pattern}
\citation{monard2003conceitos}
\citation{mena2013prospecccao}
\citation{Duda:2000}
\citation{friedman}
\@writefile{toc}{\contentsline {section}{\numberline {3}AGRUPAMENTOS HIER\IeC {\'A}RQUICOS A PARTIR DE RELAT\IeC {\'O}RIOS GERADOS PELO SCRIPTLATTES}{29}{section.3}}
\@writefile{brf}{\backcite{bishop2006pattern}{{29}{3}{section.3}}}
\@writefile{brf}{\backcite{monard2003conceitos}{{29}{3}{section.3}}}
\@writefile{brf}{\backcite{mena2013prospecccao}{{29}{3}{section.3}}}
\@writefile{toc}{\contentsline {subsection}{\numberline {3.1}AGRUPAMENTO HIER\IeC {\'A}RQUICO}{29}{subsection.3.1}}
\@writefile{brf}{\backcite{Duda:2000,friedman}{{29}{3.1}{subsection.3.1}}}
\@writefile{brf}{\backcite{Duda:2000,friedman}{{29}{3.1}{subsection.3.1}}}
\citation{Duda:2000}
\citation{friedman}
\@writefile{brf}{\backcite{Duda:2000,friedman}{{30}{3.1}{subsection.3.1}}}
\@writefile{brf}{\backcite{Duda:2000,friedman}{{30}{3.1}{subsection.3.1}}}
\@writefile{toc}{\contentsline {subsection}{\numberline {3.2}AGRUPAMENTO HIER\IeC {\'A}RQUICO DE CURR\IeC {\'I}CULOS LATTES}{30}{subsection.3.2}}
\citation{brualdi2012introductory}
\citation{newman1992elements}
\@writefile{brf}{\backcite{brualdi2012introductory,newman1992elements}{{31}{3.2}{equation.3.7}}}
\@writefile{brf}{\backcite{brualdi2012introductory,newman1992elements}{{31}{3.2}{equation.3.7}}}
\@writefile{lof}{\contentsline {figure}{\numberline {7}{\ignorespaces Exemplo: ramifica\IeC {\c c}\IeC {\~o}es do diagrama Hasse $(\mathcal  {T}, \preceq )$.}}{32}{figure.7}}
\newlabel{fig:hasse}{{7}{32}{Exemplo: ramificações do diagrama Hasse $(\mathcal {T}, \preceq )$}{figure.7}{}}
\newlabel{sec:proposedMethod}{{3.2}{32}{AGRUPAMENTO HIERÁRQUICO DE CURRÍCULOS LATTES}{figure.7}{}}
\@writefile{lot}{\contentsline {table}{\numberline {1}{\ignorespaces Estrutura do conjunto de dados}}{33}{table.1}}
\newlabel{tab:dataset}{{1}{33}{Estrutura do conjunto de dados}{table.1}{}}
\@writefile{lof}{\contentsline {figure}{\numberline {8}{\ignorespaces Dendrograma do Agrupamento Hier\IeC {\'a}rquico}}{33}{figure.8}}
\newlabel{fig:dendrogram}{{8}{33}{Dendrograma do Agrupamento Hierárquico}{figure.8}{}}
\@setckpt{agrupamentoHierarquico}{
\setcounter{page}{34}
\setcounter{equation}{9}
\setcounter{enumi}{3}
\setcounter{enumii}{0}
\setcounter{enumiii}{0}
\setcounter{enumiv}{0}
\setcounter{footnote}{0}
\setcounter{mpfootnote}{0}
\setcounter{part}{0}
\setcounter{section}{3}
\setcounter{subsection}{2}
\setcounter{subsubsection}{0}
\setcounter{paragraph}{0}
\setcounter{subparagraph}{0}
\setcounter{figure}{8}
\setcounter{table}{1}
\setcounter{parentequation}{0}
\setcounter{Item}{12}
\setcounter{Hfootnote}{0}
\setcounter{bookmark@seq@number}{17}
\setcounter{ABCIaux}{0}
\setcounter{ABCImax}{0}
\setcounter{float@type}{4}
\setcounter{lofdepth}{1}
\setcounter{lotdepth}{1}
\setcounter{section@level}{2}
}
