\relax 
\providecommand\hyper@newdestlabel[2]{}
\@writefile{toc}{\contentsline {section}{\numberline {4}APLICA\IeC {\c C}\IeC {\~O}ES}{34}{section.4}}
\@writefile{toc}{\contentsline {subsection}{\numberline {4.1}SCRIPTSUCUPIRA}{34}{subsection.4.1}}
\@writefile{lof}{\contentsline {figure}{\numberline {10}{\ignorespaces Exemplos de agrupamentos hier\IeC {\'a}rquicos}}{34}{figure.10}}
\newlabel{fig:exemploAH}{{10}{34}{Exemplos de agrupamentos hierárquicos}{figure.10}{}}
\@writefile{lof}{\contentsline {figure}{\numberline {11}{\ignorespaces Exemplo da \IeC {\'a}rvore de hierarquias}}{35}{figure.11}}
\newlabel{fig:exemploHierarquia}{{11}{35}{Exemplo da árvore de hierarquias}{figure.11}{}}
\@writefile{lot}{\contentsline {table}{\numberline {2}{\ignorespaces Par\IeC {\^a}metros de configura\IeC {\c c}\IeC {\~o}es do ScriptSucupira}}{36}{table.2}}
\newlabel{tab:parametros}{{2}{36}{Parâmetros de configurações do ScriptSucupira}{table.2}{}}
\@writefile{lof}{\contentsline {figure}{\numberline {12}{\ignorespaces Processo de execu\IeC {\c c}\IeC {\~a}o ScriptSucupira}}{38}{figure.12}}
\newlabel{fig:ScriptSucupira}{{12}{38}{Processo de execução ScriptSucupira}{figure.12}{}}
\@writefile{toc}{\contentsline {subsubsection}{\numberline {4.1.1}Resultados utilizando o ScriptSucupira}{38}{subsubsection.4.1.1}}
\@writefile{lof}{\contentsline {figure}{\numberline {13}{\ignorespaces Agrupamento hier\IeC {\'a}rquico do per\IeC {\'\i }odo $\mathcal  {T}^{2013}$, do programa de p\IeC {\'o}s-gradua\IeC {\c c}\IeC {\~a}o \emph  {stricto sensu} em Sa\IeC {\'u}de da Universidade Nove de Julho-UNINOVE}}{39}{figure.13}}
\newlabel{fig:ScriptSucupiraResultadoSaude2}{{13}{39}{Agrupamento hierárquico do período $\mathcal {T}^{2013}$, do programa de pós-graduação \emph {stricto sensu} em Saúde da Universidade Nove de Julho-UNINOVE}{figure.13}{}}
\@writefile{lof}{\contentsline {figure}{\numberline {14}{\ignorespaces Relat\IeC {\'o}rio gerado pelo ScriptLattes do agrupamento hier\IeC {\'a}rquico no per\IeC {\'\i }odo $\mathcal  {T}^{2013}$, do programa de p\IeC {\'o}s-gradua\IeC {\c c}\IeC {\~a}o \emph  {stricto sensu} em Sa\IeC {\'u}de da Universidade Nove de Julho-UNINOVE}}{39}{figure.14}}
\newlabel{fig:ScriptSucupiraResultadoSaude22}{{14}{39}{Relatório gerado pelo ScriptLattes do agrupamento hierárquico no período $\mathcal {T}^{2013}$, do programa de pós-graduação \emph {stricto sensu} em Saúde da Universidade Nove de Julho-UNINOVE}{figure.14}{}}
\@writefile{lof}{\contentsline {figure}{\numberline {15}{\ignorespaces Agrupamento hier\IeC {\'a}rquico do per\IeC {\'\i }odo $\mathcal  {T}^{2014}$, do programa de p\IeC {\'o}s-gradua\IeC {\c c}\IeC {\~a}o \emph  {stricto sensu} em Sa\IeC {\'u}de da Universidade Nove de Julho-UNINOVE}}{40}{figure.15}}
\newlabel{fig:ScriptSucupiraResultadoSaude3}{{15}{40}{Agrupamento hierárquico do período $\mathcal {T}^{2014}$, do programa de pós-graduação \emph {stricto sensu} em Saúde da Universidade Nove de Julho-UNINOVE}{figure.15}{}}
\@writefile{lof}{\contentsline {figure}{\numberline {16}{\ignorespaces Relat\IeC {\'o}rio gerado pelo ScriptLattes do agrupamento hier\IeC {\'a}rquico no per\IeC {\'\i }odo $\mathcal  {T}^{2014}$, do programa de p\IeC {\'o}s-gradua\IeC {\c c}\IeC {\~a}o \emph  {stricto sensu} em Sa\IeC {\'u}de da Universidade Nove de Julho-UNINOVE}}{41}{figure.16}}
\newlabel{fig:ScriptSucupiraResultadoSaude33}{{16}{41}{Relatório gerado pelo ScriptLattes do agrupamento hierárquico no período $\mathcal {T}^{2014}$, do programa de pós-graduação \emph {stricto sensu} em Saúde da Universidade Nove de Julho-UNINOVE}{figure.16}{}}
\@writefile{lof}{\contentsline {figure}{\numberline {17}{\ignorespaces Agrupamento hier\IeC {\'a}rquico do per\IeC {\'\i }odo $\mathcal  {T}^{2015}$, do programa de p\IeC {\'o}s-gradua\IeC {\c c}\IeC {\~a}o \emph  {stricto sensu} em Sa\IeC {\'u}de da Universidade Nove de Julho-UNINOVE}}{42}{figure.17}}
\newlabel{fig:ScriptSucupiraResultadoSaude4}{{17}{42}{Agrupamento hierárquico do período $\mathcal {T}^{2015}$, do programa de pós-graduação \emph {stricto sensu} em Saúde da Universidade Nove de Julho-UNINOVE}{figure.17}{}}
\@writefile{lof}{\contentsline {figure}{\numberline {18}{\ignorespaces Relat\IeC {\'o}rio gerado pelo ScriptLattes do agrupamento hier\IeC {\'a}rquico no per\IeC {\'\i }odo $\mathcal  {T}^{2015}$, do programa de p\IeC {\'o}s-gradua\IeC {\c c}\IeC {\~a}o \emph  {stricto sensu} em Sa\IeC {\'u}de da Universidade Nove de Julho-UNINOVE}}{42}{figure.18}}
\newlabel{fig:ScriptSucupiraResultadoSaude44}{{18}{42}{Relatório gerado pelo ScriptLattes do agrupamento hierárquico no período $\mathcal {T}^{2015}$, do programa de pós-graduação \emph {stricto sensu} em Saúde da Universidade Nove de Julho-UNINOVE}{figure.18}{}}
\@writefile{lof}{\contentsline {figure}{\numberline {19}{\ignorespaces Agrupamento hier\IeC {\'a}rquico do per\IeC {\'\i }odo $\mathcal  {T}^{2016}$, do programa de p\IeC {\'o}s-gradua\IeC {\c c}\IeC {\~a}o \emph  {stricto sensu} em Sa\IeC {\'u}de da Universidade Nove de Julho-UNINOVE}}{43}{figure.19}}
\newlabel{fig:ScriptSucupiraResultadoSaude5}{{19}{43}{Agrupamento hierárquico do período $\mathcal {T}^{2016}$, do programa de pós-graduação \emph {stricto sensu} em Saúde da Universidade Nove de Julho-UNINOVE}{figure.19}{}}
\@writefile{lof}{\contentsline {figure}{\numberline {20}{\ignorespaces Relat\IeC {\'o}rio gerado pelo ScriptLattes do agrupamento hier\IeC {\'a}rquico no per\IeC {\'\i }odo $\mathcal  {T}^{2016}$, do programa de p\IeC {\'o}s-gradua\IeC {\c c}\IeC {\~a}o \emph  {stricto sensu} em Sa\IeC {\'u}de da Universidade Nove de Julho-UNINOVE}}{43}{figure.20}}
\newlabel{fig:ScriptSucupiraResultadoSaude55}{{20}{43}{Relatório gerado pelo ScriptLattes do agrupamento hierárquico no período $\mathcal {T}^{2016}$, do programa de pós-graduação \emph {stricto sensu} em Saúde da Universidade Nove de Julho-UNINOVE}{figure.20}{}}
\@writefile{lof}{\contentsline {figure}{\numberline {21}{\ignorespaces Agrupamento hier\IeC {\'a}rquico do per\IeC {\'\i }odo quadri\IeC {\^e}nal $\mathcal  {T}^{2013-2016}$, do programa de p\IeC {\'o}s-gradua\IeC {\c c}\IeC {\~a}o \emph  {stricto sensu} em Sa\IeC {\'u}de da Universidade Nove de Julho-UNINOVE}}{44}{figure.21}}
\newlabel{fig:ScriptSucupiraResultadoSaude6}{{21}{44}{Agrupamento hierárquico do período quadriênal $\mathcal {T}^{2013-2016}$, do programa de pós-graduação \emph {stricto sensu} em Saúde da Universidade Nove de Julho-UNINOVE}{figure.21}{}}
\@writefile{lof}{\contentsline {figure}{\numberline {22}{\ignorespaces Relat\IeC {\'o}rio gerado pelo ScriptLattes do agrupamento hier\IeC {\'a}rquico no quadri\IeC {\^e}nio $\mathcal  {T}^{2013-2016}$, do programa de p\IeC {\'o}s-gradua\IeC {\c c}\IeC {\~a}o \emph  {stricto sensu} em Sa\IeC {\'u}de da Universidade Nove de Julho-UNINOVE}}{44}{figure.22}}
\newlabel{fig:ScriptSucupiraResultadoSaude66}{{22}{44}{Relatório gerado pelo ScriptLattes do agrupamento hierárquico no quadriênio $\mathcal {T}^{2013-2016}$, do programa de pós-graduação \emph {stricto sensu} em Saúde da Universidade Nove de Julho-UNINOVE}{figure.22}{}}
\@writefile{lof}{\contentsline {figure}{\numberline {23}{\ignorespaces Agrupamento hier\IeC {\'a}rquico do per\IeC {\'\i }odo $\mathcal  {T}^{2013}$,do programa de p\IeC {\'o}s-gradua\IeC {\c c}\IeC {\~a}o \emph  {stricto sensu} em Inform\IeC {\'a}tica e Gest\IeC {\~a}o do Conhecimento da Universidade Nove de Julho-UNINOVE}}{45}{figure.23}}
\newlabel{fig:ScriptSucupiraResultadoPPGI2}{{23}{45}{Agrupamento hierárquico do período $\mathcal {T}^{2013}$,do programa de pós-graduação \emph {stricto sensu} em Informática e Gestão do Conhecimento da Universidade Nove de Julho-UNINOVE}{figure.23}{}}
\@writefile{lof}{\contentsline {figure}{\numberline {24}{\ignorespaces Relat\IeC {\'o}rio gerado pelo ScriptLattes do agrupamento hier\IeC {\'a}rquico no per\IeC {\'\i }odo $\mathcal  {T}^{2013}$, do programa de p\IeC {\'o}s-gradua\IeC {\c c}\IeC {\~a}o \emph  {stricto sensu} em Inform\IeC {\'a}tica e Gest\IeC {\~a}o do Conhecimento da Universidade Nove de Julho-UNINOVE}}{46}{figure.24}}
\newlabel{fig:ScriptSucupiraResultadoPPGI22}{{24}{46}{Relatório gerado pelo ScriptLattes do agrupamento hierárquico no período $\mathcal {T}^{2013}$, do programa de pós-graduação \emph {stricto sensu} em Informática e Gestão do Conhecimento da Universidade Nove de Julho-UNINOVE}{figure.24}{}}
\@writefile{lof}{\contentsline {figure}{\numberline {25}{\ignorespaces Agrupamento hier\IeC {\'a}rquico do per\IeC {\'\i }odo $\mathcal  {T}^{2014}$, do programa de p\IeC {\'o}s-gradua\IeC {\c c}\IeC {\~a}o \emph  {stricto sensu} em Inform\IeC {\'a}tica e Gest\IeC {\~a}o do Conhecimento da Universidade Nove de Julho-UNINOVE}}{47}{figure.25}}
\newlabel{fig:ScriptSucupiraResultadoPPGI3}{{25}{47}{Agrupamento hierárquico do período $\mathcal {T}^{2014}$, do programa de pós-graduação \emph {stricto sensu} em Informática e Gestão do Conhecimento da Universidade Nove de Julho-UNINOVE}{figure.25}{}}
\@writefile{lof}{\contentsline {figure}{\numberline {26}{\ignorespaces Relat\IeC {\'o}rio gerado pelo ScriptLattes do agrupamento hier\IeC {\'a}rquico no per\IeC {\'\i }odo $\mathcal  {T}^{2014}$, do programa de p\IeC {\'o}s-gradua\IeC {\c c}\IeC {\~a}o \emph  {stricto sensu} em Inform\IeC {\'a}tica e Gest\IeC {\~a}o do Conhecimento da Universidade Nove de Julho-UNINOVE}}{48}{figure.26}}
\newlabel{fig:ScriptSucupiraResultadoPPGI33}{{26}{48}{Relatório gerado pelo ScriptLattes do agrupamento hierárquico no período $\mathcal {T}^{2014}$, do programa de pós-graduação \emph {stricto sensu} em Informática e Gestão do Conhecimento da Universidade Nove de Julho-UNINOVE}{figure.26}{}}
\@writefile{lof}{\contentsline {figure}{\numberline {27}{\ignorespaces Agrupamento hier\IeC {\'a}rquico do per\IeC {\'\i }odo $\mathcal  {T}^{2015}$, do programa de p\IeC {\'o}s-gradua\IeC {\c c}\IeC {\~a}o \emph  {stricto sensu} em Inform\IeC {\'a}tica e Gest\IeC {\~a}o do Conhecimento da Universidade Nove de Julho-UNINOVE}}{49}{figure.27}}
\newlabel{fig:ScriptSucupiraResultadoPPGI4}{{27}{49}{Agrupamento hierárquico do período $\mathcal {T}^{2015}$, do programa de pós-graduação \emph {stricto sensu} em Informática e Gestão do Conhecimento da Universidade Nove de Julho-UNINOVE}{figure.27}{}}
\@writefile{lof}{\contentsline {figure}{\numberline {28}{\ignorespaces Relat\IeC {\'o}rio gerado pelo ScriptLattes do agrupamento hier\IeC {\'a}rquico no per\IeC {\'\i }odo $\mathcal  {T}^{2015}$, do programa de p\IeC {\'o}s-gradua\IeC {\c c}\IeC {\~a}o \emph  {stricto sensu} em Inform\IeC {\'a}tica e Gest\IeC {\~a}o do Conhecimento da Universidade Nove de Julho-UNINOVE}}{50}{figure.28}}
\newlabel{fig:ScriptSucupiraResultadoPPGI44}{{28}{50}{Relatório gerado pelo ScriptLattes do agrupamento hierárquico no período $\mathcal {T}^{2015}$, do programa de pós-graduação \emph {stricto sensu} em Informática e Gestão do Conhecimento da Universidade Nove de Julho-UNINOVE}{figure.28}{}}
\@writefile{lof}{\contentsline {figure}{\numberline {29}{\ignorespaces Agrupamento hier\IeC {\'a}rquico do per\IeC {\'\i }odo $\mathcal  {T}^{2016}$, do programa de p\IeC {\'o}s-gradua\IeC {\c c}\IeC {\~a}o \emph  {stricto sensu} em Inform\IeC {\'a}tica e Gest\IeC {\~a}o do Conhecimento da Universidade Nove de Julho-UNINOVE}}{51}{figure.29}}
\newlabel{fig:ScriptSucupiraResultadoPPGI5}{{29}{51}{Agrupamento hierárquico do período $\mathcal {T}^{2016}$, do programa de pós-graduação \emph {stricto sensu} em Informática e Gestão do Conhecimento da Universidade Nove de Julho-UNINOVE}{figure.29}{}}
\@writefile{lof}{\contentsline {figure}{\numberline {30}{\ignorespaces Relat\IeC {\'o}rio gerado pelo ScriptLattes do agrupamento hier\IeC {\'a}rquico no per\IeC {\'\i }odo $\mathcal  {T}^{2016}$, do programa de p\IeC {\'o}s-gradua\IeC {\c c}\IeC {\~a}o \emph  {stricto sensu} em Inform\IeC {\'a}tica e Gest\IeC {\~a}o do Conhecimento da Universidade Nove de Julho-UNINOVE}}{52}{figure.30}}
\newlabel{fig:ScriptSucupiraResultadoPPGI55}{{30}{52}{Relatório gerado pelo ScriptLattes do agrupamento hierárquico no período $\mathcal {T}^{2016}$, do programa de pós-graduação \emph {stricto sensu} em Informática e Gestão do Conhecimento da Universidade Nove de Julho-UNINOVE}{figure.30}{}}
\@writefile{lof}{\contentsline {figure}{\numberline {31}{\ignorespaces Agrupamento hier\IeC {\'a}rquico do per\IeC {\'\i }odo quadri\IeC {\^e}nal $\mathcal  {T}^{2013-2016}$, do programa de p\IeC {\'o}s-gradua\IeC {\c c}\IeC {\~a}o \emph  {stricto sensu} em Inform\IeC {\'a}tica e Gest\IeC {\~a}o do Conhecimento da Universidade Nove de Julho-UNINOVE}}{52}{figure.31}}
\newlabel{fig:ScriptSucupiraResultadoPPGI6}{{31}{52}{Agrupamento hierárquico do período quadriênal $\mathcal {T}^{2013-2016}$, do programa de pós-graduação \emph {stricto sensu} em Informática e Gestão do Conhecimento da Universidade Nove de Julho-UNINOVE}{figure.31}{}}
\@writefile{lof}{\contentsline {figure}{\numberline {32}{\ignorespaces Relat\IeC {\'o}rio gerado pelo ScriptLattes do agrupamento hier\IeC {\'a}rquico no quadri\IeC {\^e}nio $\mathcal  {T}^{2013-2016}$, do programa de p\IeC {\'o}s-gradua\IeC {\c c}\IeC {\~a}o \emph  {stricto sensu} em Inform\IeC {\'a}tica e Gest\IeC {\~a}o do Conhecimento da Universidade Nove de Julho-UNINOVE}}{53}{figure.32}}
\newlabel{fig:ScriptSucupiraResultadoPPGI66}{{32}{53}{Relatório gerado pelo ScriptLattes do agrupamento hierárquico no quadriênio $\mathcal {T}^{2013-2016}$, do programa de pós-graduação \emph {stricto sensu} em Informática e Gestão do Conhecimento da Universidade Nove de Julho-UNINOVE}{figure.32}{}}
\citation{catani2002educaccao}
\@writefile{lof}{\contentsline {figure}{\numberline {33}{\ignorespaces Quadri\IeC {\^e}nio completo dos programa de p\IeC {\'o}s-gradua\IeC {\c c}\IeC {\~a}o \emph  {stricto sensu} Universidade Nove de Julho-UNINOVE}}{54}{figure.33}}
\newlabel{fig:ScriptSucupiraResultadoUNINOVECOMPLETO}{{33}{54}{Quadriênio completo dos programa de pós-graduação \emph {stricto sensu} Universidade Nove de Julho-UNINOVE}{figure.33}{}}
\@writefile{toc}{\contentsline {subsection}{\numberline {4.2}SCRIPTEMEC}{54}{subsection.4.2}}
\@writefile{brf}{\backcite{catani2002educaccao}{{54}{4.2}{subsection.4.2}}}
\@writefile{lof}{\contentsline {figure}{\numberline {34}{\ignorespaces Exemplo da \IeC {\'a}rvore de hierarquias}}{55}{figure.34}}
\newlabel{fig:hierarquiaScriptEMEC}{{34}{55}{Exemplo da árvore de hierarquias}{figure.34}{}}
\@writefile{lof}{\contentsline {figure}{\numberline {35}{\ignorespaces Processo de execu\IeC {\c c}\IeC {\~a}o ScriptEMec}}{56}{figure.35}}
\newlabel{fig:ScriptEMec}{{35}{56}{Processo de execução ScriptEMec}{figure.35}{}}
\@writefile{toc}{\contentsline {subsubsection}{\numberline {4.2.1}Resultados utilizando a ferramenta ScriptEMec}{56}{subsubsection.4.2.1}}
\@writefile{lof}{\contentsline {figure}{\numberline {36}{\ignorespaces Agrupamento hier\IeC {\'a}rquico para os cursos de gradua\IeC {\c c}\IeC {\~a}o da Faculdade Anglo-Americano de Caxias do Sul-IDEAU.}}{57}{figure.36}}
\newlabel{fig:scriptEMecResultadosIdeau1}{{36}{57}{Agrupamento hierárquico para os cursos de graduação da Faculdade Anglo-Americano de Caxias do Sul-IDEAU}{figure.36}{}}
\@writefile{lof}{\contentsline {figure}{\numberline {37}{\ignorespaces Relat\IeC {\'o}rio gerado pelo ScriptLattes do agrupamento hier\IeC {\'a}rquico para os cursos de gradua\IeC {\c c}\IeC {\~a}o da Faculdade Anglo-Americano de Caxias do Sul-IDEAU.}}{58}{figure.37}}
\newlabel{fig:scriptEMecResultadosIdeau11}{{37}{58}{Relatório gerado pelo ScriptLattes do agrupamento hierárquico para os cursos de graduação da Faculdade Anglo-Americano de Caxias do Sul-IDEAU}{figure.37}{}}
\@writefile{lof}{\contentsline {figure}{\numberline {38}{\ignorespaces Relat\IeC {\'o}rio gerado pelo ScriptLattes, do agrupamento hier\IeC {\'a}rquico do tri\IeC {\^e}nio de $\mathcal  {T}^{2014}$ at\IeC {\'e} $\mathcal  {T}^{2016}$, para os cursos de gradua\IeC {\c c}\IeC {\~a}o da Faculdade Anglo-Americano de Caxias do Sul-IDEAU.}}{59}{figure.38}}
\newlabel{fig:scriptEMecResultadosIdeau2}{{38}{59}{Relatório gerado pelo ScriptLattes, do agrupamento hierárquico do triênio de $\mathcal {T}^{2014}$ até $\mathcal {T}^{2016}$, para os cursos de graduação da Faculdade Anglo-Americano de Caxias do Sul-IDEAU}{figure.38}{}}
\@writefile{lof}{\contentsline {figure}{\numberline {39}{\ignorespaces Agrupamento hier\IeC {\'a}rquico do periodo de $\mathcal  {T}^{1989}$ at\IeC {\'e} $\mathcal  {T}^{2017}$ para os cursos de gradua\IeC {\c c}\IeC {\~a}o da Faculdade Albert Einstein.}}{60}{figure.39}}
\newlabel{fig:scriptEMecResultadosFAE1}{{39}{60}{Agrupamento hierárquico do periodo de $\mathcal {T}^{1989}$ até $\mathcal {T}^{2017}$ para os cursos de graduação da Faculdade Albert Einstein}{figure.39}{}}
\@writefile{lof}{\contentsline {figure}{\numberline {40}{\ignorespaces Relat\IeC {\'o}rio gerado pelo ScriptLattes do agrupamento hier\IeC {\'a}rquico do periodo de $\mathcal  {T}^{1989}$ at\IeC {\'e} $\mathcal  {T}^{2017}$ para os cursos de gradua\IeC {\c c}\IeC {\~a}o da Faculdade Albert Einstein.}}{61}{figure.40}}
\newlabel{fig:scriptEMecResultadosFAE11}{{40}{61}{Relatório gerado pelo ScriptLattes do agrupamento hierárquico do periodo de $\mathcal {T}^{1989}$ até $\mathcal {T}^{2017}$ para os cursos de graduação da Faculdade Albert Einstein}{figure.40}{}}
\@writefile{lof}{\contentsline {figure}{\numberline {41}{\ignorespaces Relat\IeC {\'o}rio gerado pelo ScriptLattes do agrupamento hier\IeC {\'a}rquico do periodo de $\mathcal  {T}^{1989}$ at\IeC {\'e} $\mathcal  {T}^{2017}$ para os cursos de gradua\IeC {\c c}\IeC {\~a}o da Faculdade Albert Einstein.}}{62}{figure.41}}
\newlabel{fig:scriptEMecResultadosFAE22}{{41}{62}{Relatório gerado pelo ScriptLattes do agrupamento hierárquico do periodo de $\mathcal {T}^{1989}$ até $\mathcal {T}^{2017}$ para os cursos de graduação da Faculdade Albert Einstein}{figure.41}{}}
\@setckpt{aplicacao}{
\setcounter{page}{63}
\setcounter{equation}{9}
\setcounter{enumi}{2}
\setcounter{enumii}{0}
\setcounter{enumiii}{0}
\setcounter{enumiv}{0}
\setcounter{footnote}{0}
\setcounter{mpfootnote}{0}
\setcounter{part}{0}
\setcounter{section}{4}
\setcounter{subsection}{2}
\setcounter{subsubsection}{1}
\setcounter{paragraph}{0}
\setcounter{subparagraph}{0}
\setcounter{figure}{41}
\setcounter{table}{2}
\setcounter{parentequation}{0}
\setcounter{Item}{22}
\setcounter{Hfootnote}{0}
\setcounter{bookmark@seq@number}{24}
\setcounter{ABCIaux}{0}
\setcounter{ABCImax}{0}
\setcounter{float@type}{4}
\setcounter{lofdepth}{1}
\setcounter{lotdepth}{1}
\setcounter{section@level}{3}
}
