\relax 
\providecommand\hyper@newdestlabel[2]{}
\citation{maccari2009gestao}
\@writefile{toc}{\contentsline {section}{\numberline {5}PLANOS PARA DEFESA}{63}{section.5}}
\@writefile{toc}{\contentsline {subsection}{\numberline {5.1}CLASSIFICA\IeC {\c C}\IeC {\~A}O DO CONCEITO CAPES}{63}{subsection.5.1}}
\@writefile{brf}{\backcite{maccari2009gestao}{{63}{5.1}{subsection.5.1}}}
\@writefile{toc}{\contentsline {subsection}{\numberline {5.2}PREDI\IeC {\c C}\IeC {\~A}O DA NOTA CAPES DE PROGRAMAS STRICTO SENSU}{63}{subsection.5.2}}
\@writefile{lof}{\contentsline {figure}{\numberline {42}{\ignorespaces Processo de classifica\IeC {\c c}\IeC {\~a}o de um programa de \emph  {stricto sensu}, pelos indicadores CAPES.}}{64}{figure.42}}
\newlabel{fig:redeNeuraisScript}{{42}{64}{Processo de classificação de um programa de \emph {stricto sensu}, pelos indicadores CAPES}{figure.42}{}}
\@writefile{toc}{\contentsline {subsection}{\numberline {5.3}CRONOGRAMA}{64}{subsection.5.3}}
\@writefile{lot}{\contentsline {table}{\numberline {7}{\ignorespaces Cronograma para defesa}}{65}{table.7}}
\newlabel{tab:cronograma}{{7}{65}{Cronograma para defesa}{table.7}{}}
\@writefile{lot}{\contentsline {table}{\numberline {3}{\ignorespaces Programas \IeC {\'a}rea interdisciplinar com nota CAPES $3$}}{66}{table.3}}
\newlabel{tab:classificacao3}{{3}{66}{Programas área interdisciplinar com nota CAPES $3$}{table.3}{}}
\@writefile{lot}{\contentsline {table}{\numberline {4}{\ignorespaces Programas \IeC {\'a}rea interdisciplinar com nota CAPES $4$}}{67}{table.4}}
\newlabel{tab:classificacao4}{{4}{67}{Programas área interdisciplinar com nota CAPES $4$}{table.4}{}}
\@writefile{lot}{\contentsline {table}{\numberline {5}{\ignorespaces Programas \IeC {\'a}rea interdisciplinar com nota CAPES $7$}}{67}{table.5}}
\newlabel{tab:classificacao5}{{5}{67}{Programas área interdisciplinar com nota CAPES $7$}{table.5}{}}
\@writefile{lot}{\contentsline {table}{\numberline {6}{\ignorespaces Programa \IeC {\'a}rea interdisciplinar com nota CAPES $6$}}{67}{table.6}}
\newlabel{tab:classificacao6}{{6}{67}{Programa área interdisciplinar com nota CAPES $6$}{table.6}{}}
\@setckpt{conclusao}{
\setcounter{page}{68}
\setcounter{equation}{9}
\setcounter{enumi}{2}
\setcounter{enumii}{0}
\setcounter{enumiii}{0}
\setcounter{enumiv}{0}
\setcounter{footnote}{0}
\setcounter{mpfootnote}{0}
\setcounter{part}{0}
\setcounter{section}{5}
\setcounter{subsection}{3}
\setcounter{subsubsection}{0}
\setcounter{paragraph}{0}
\setcounter{subparagraph}{0}
\setcounter{figure}{42}
\setcounter{table}{7}
\setcounter{parentequation}{0}
\setcounter{Item}{22}
\setcounter{Hfootnote}{0}
\setcounter{bookmark@seq@number}{28}
\setcounter{ABCIaux}{0}
\setcounter{ABCImax}{0}
\setcounter{float@type}{4}
\setcounter{lofdepth}{1}
\setcounter{lotdepth}{1}
\setcounter{section@level}{2}
}
