\relax 
\providecommand\hyper@newdestlabel[2]{}
\citation{ferraz2014analise}
\citation{mirtaheri2013brief}
\citation{genvlandwwww}
\citation{mirtaheri2013brief}
\citation{kausar2013web}
\citation{Infoseek:2017}
\citation{Lycos:2017}
\citation{altavista:2017}
\citation{excite:2017}
\citation{dogpile:2017}
\citation{ask:2017}
\@writefile{toc}{\contentsline {section}{\numberline {2}WEB-CRAWLERS PARA EXTRA\IeC {\c C}\IeC {\~A}O DE DADOS NA PLATAFORMA LATTES}{18}{section.2}}
\@writefile{brf}{\backcite{ferraz2014analise}{{18}{2}{section.2}}}
\@writefile{toc}{\contentsline {subsection}{\numberline {2.1}WEB-CRAWLERS}{18}{subsection.2.1}}
\@writefile{brf}{\backcite{mirtaheri2013brief}{{18}{2.1}{subsection.2.1}}}
\@writefile{brf}{\backcite{genvlandwwww}{{18}{2.1}{subsection.2.1}}}
\@writefile{brf}{\backcite{mirtaheri2013brief}{{18}{2.1}{subsection.2.1}}}
\@writefile{brf}{\backcite{kausar2013web}{{18}{2.1}{subsection.2.1}}}
\@writefile{brf}{\backcite{Infoseek:2017}{{18}{2.1}{subsection.2.1}}}
\@writefile{brf}{\backcite{Lycos:2017}{{18}{2.1}{subsection.2.1}}}
\@writefile{brf}{\backcite{altavista:2017}{{18}{2.1}{subsection.2.1}}}
\@writefile{brf}{\backcite{excite:2017}{{18}{2.1}{subsection.2.1}}}
\citation{google:2017}
\citation{brin2006pagerank}
\citation{santos2014mineraccao}
\citation{rocha2012ferramenta}
\citation{machado2016web}
\citation{rodrigues2010ferramenta}
\citation{elishar2012organizational}
\citation{santos2010prototipo}
\citation{Mena-Chalco2009}
\citation{alves2016hierarchical}
\citation{lane2010let}
\citation{bonifacio2002ontologias}
\citation{horrocks2002daml+oil}
\citation{bonifacio2002ontologias}
\@writefile{brf}{\backcite{dogpile:2017}{{19}{2.1}{subsection.2.1}}}
\@writefile{brf}{\backcite{ask:2017}{{19}{2.1}{subsection.2.1}}}
\@writefile{brf}{\backcite{google:2017}{{19}{2.1}{subsection.2.1}}}
\@writefile{brf}{\backcite{brin2006pagerank}{{19}{2.1}{subsection.2.1}}}
\@writefile{brf}{\backcite{santos2014mineraccao}{{19}{2.1}{subsection.2.1}}}
\@writefile{brf}{\backcite{rocha2012ferramenta, machado2016web}{{19}{2.1}{subsection.2.1}}}
\@writefile{brf}{\backcite{rocha2012ferramenta, machado2016web}{{19}{2.1}{subsection.2.1}}}
\@writefile{brf}{\backcite{rodrigues2010ferramenta}{{19}{2.1}{subsection.2.1}}}
\@writefile{brf}{\backcite{elishar2012organizational,santos2010prototipo,Mena-Chalco2009, alves2016hierarchical}{{19}{2.1}{subsection.2.1}}}
\@writefile{brf}{\backcite{elishar2012organizational,santos2010prototipo,Mena-Chalco2009, alves2016hierarchical}{{19}{2.1}{subsection.2.1}}}
\@writefile{brf}{\backcite{elishar2012organizational,santos2010prototipo,Mena-Chalco2009, alves2016hierarchical}{{19}{2.1}{subsection.2.1}}}
\@writefile{brf}{\backcite{elishar2012organizational,santos2010prototipo,Mena-Chalco2009, alves2016hierarchical}{{19}{2.1}{subsection.2.1}}}
\@writefile{toc}{\contentsline {subsection}{\numberline {2.2}FERRAMENTAS DE EXTRA\IeC {\c C}\IeC {\~O}ES DE DADOS NA PLATAFORMA LATTES E WEB-CRAWLERS}{19}{subsection.2.2}}
\@writefile{brf}{\backcite{lane2010let}{{19}{2.2}{subsection.2.2}}}
\@writefile{toc}{\contentsline {subsubsection}{\numberline {2.2.1}OntoLattes}{19}{subsubsection.2.2.1}}
\@writefile{brf}{\backcite{bonifacio2002ontologias}{{19}{2.2.1}{subsubsection.2.2.1}}}
\@writefile{brf}{\backcite{horrocks2002daml+oil}{{19}{2.2.1}{subsubsection.2.2.1}}}
\citation{oliveira2004geralattes}
\citation{da2009semantic}
\citation{bechhofer2009owl}
\@writefile{brf}{\backcite{bonifacio2002ontologias}{{20}{2.2.1}{subsubsection.2.2.1}}}
\@writefile{lof}{\contentsline {figure}{\numberline {2}{\ignorespaces Processo da ferramenta OntoLattes}}{20}{figure.2}}
\newlabel{fig:ontolates}{{2}{20}{Processo da ferramenta OntoLattes}{figure.2}{}}
\@writefile{toc}{\contentsline {subsubsection}{\numberline {2.2.2}GeraLattes}{20}{subsubsection.2.2.2}}
\@writefile{brf}{\backcite{oliveira2004geralattes}{{20}{2.2.2}{subsubsection.2.2.2}}}
\@writefile{toc}{\contentsline {subsubsection}{\numberline {2.2.3}SemanticLattes}{20}{subsubsection.2.2.3}}
\@writefile{brf}{\backcite{da2009semantic}{{20}{2.2.3}{subsubsection.2.2.3}}}
\@writefile{brf}{\backcite{bechhofer2009owl}{{21}{2.2.3}{subsubsection.2.2.3}}}
\@writefile{lof}{\contentsline {figure}{\numberline {3}{\ignorespaces Passos para utiliza\IeC {\c c}\IeC {\~a}o da ferramenta SemanticLattes}}{21}{figure.3}}
\newlabel{fig:SemanticLattes}{{3}{21}{Passos para utilização da ferramenta SemanticLattes}{figure.3}{}}
\@writefile{toc}{\contentsline {subsubsection}{\numberline {2.2.4}ScriptLattes}{21}{subsubsection.2.2.4}}
\citation{aboutPgScriptLattes:2017}
\citation{mena2012caracterizando}
\@writefile{brf}{\backcite{aboutPgScriptLattes:2017}{{23}{2}{Item.2}}}
\@writefile{brf}{\backcite{mena2012caracterizando}{{23}{3}{Item.3}}}
\@writefile{lof}{\contentsline {figure}{\numberline {4}{\ignorespaces Grafo de colabora\IeC {\c c}\IeC {\~a}o do ScriptLattes}}{24}{figure.4}}
\newlabel{fig:grafoDeColaboracoes}{{4}{24}{Grafo de colaboração do ScriptLattes}{figure.4}{}}
\citation{statisticsScriptlattes:2017}
\@writefile{brf}{\backcite{statisticsScriptlattes:2017}{{25}{2.2.4}{Item.6}}}
\@writefile{lof}{\contentsline {figure}{\numberline {5}{\ignorespaces Utiliza\IeC {\c c}\IeC {\~a}o do Scritlattes por regi\IeC {\~a}o.}}{25}{figure.5}}
\newlabel{fig:scriptlattesNumeros}{{5}{25}{Utilização do Scritlattes por região}{figure.5}{}}
\@writefile{toc}{\contentsline {subsection}{\numberline {2.3}UTILIZANDO SCRIPTLATTES PARA EXTRA\IeC {\c C}\IeC {\~A}O DE CURR\IeC {\'I}CULOS E MINERA\IeC {\c C}\IeC {\~A}O DAS INFORMA\IeC {\c C}\IeC {\~O}ES}{25}{subsection.2.3}}
\citation{fernandez2012semantic}
\@writefile{lof}{\contentsline {figure}{\numberline {6}{\ignorespaces Processo de execu\IeC {\c c}\IeC {\~a}o ScriptLattes}}{26}{figure.6}}
\newlabel{fig:ScriptLattes}{{6}{26}{Processo de execução ScriptLattes}{figure.6}{}}
\@writefile{toc}{\contentsline {subsubsection}{\numberline {2.3.1}Trabalhos que utilizam o ScriptLattes}{26}{subsubsection.2.3.1}}
\@writefile{brf}{\backcite{fernandez2012semantic}{{26}{2.3.1}{subsubsection.2.3.1}}}
\citation{ferraz2014use}
\citation{giordano2015uso}
\citation{nigro2015uso}
\citation{nigroprestaccao}
\@writefile{brf}{\backcite{ferraz2014use}{{27}{2.3.1}{subsubsection.2.3.1}}}
\@writefile{brf}{\backcite{giordano2015uso}{{27}{2.3.1}{subsubsection.2.3.1}}}
\@writefile{brf}{\backcite{nigro2015uso}{{27}{2.3.1}{subsubsection.2.3.1}}}
\@writefile{brf}{\backcite{nigroprestaccao}{{27}{2.3.1}{subsubsection.2.3.1}}}
\citation{mena2013prospecccao}
\citation{nigro2016uso}
\@writefile{brf}{\backcite{mena2013prospecccao}{{28}{2.3.1}{subsubsection.2.3.1}}}
\@writefile{brf}{\backcite{nigro2016uso}{{28}{2.3.1}{subsubsection.2.3.1}}}
\@setckpt{conceitos}{
\setcounter{page}{29}
\setcounter{equation}{0}
\setcounter{enumi}{6}
\setcounter{enumii}{0}
\setcounter{enumiii}{0}
\setcounter{enumiv}{0}
\setcounter{footnote}{0}
\setcounter{mpfootnote}{0}
\setcounter{part}{0}
\setcounter{section}{2}
\setcounter{subsection}{3}
\setcounter{subsubsection}{1}
\setcounter{paragraph}{0}
\setcounter{subparagraph}{0}
\setcounter{figure}{6}
\setcounter{table}{0}
\setcounter{parentequation}{0}
\setcounter{Item}{6}
\setcounter{Hfootnote}{0}
\setcounter{bookmark@seq@number}{14}
\setcounter{ABCIaux}{0}
\setcounter{ABCImax}{0}
\setcounter{float@type}{4}
\setcounter{lofdepth}{1}
\setcounter{lotdepth}{1}
\setcounter{section@level}{3}
}
