\relax 
\providecommand\hyper@newdestlabel[2]{}
\citation{lane2010let}
\citation{kadriu2013discovering}
\citation{lynch2003institutional}
\citation{fernandez2012semantic}
\citation{burns2013institutional}
\citation{edgar2010survey}
\citation{bras2003organizaccao1}
\citation{Statistics:2017}
\citation{aboutPlataform:2017}
\@writefile{toc}{\contentsline {section}{\numberline {1}INTRODU\IeC {\c C}\IeC {\~A}O}{13}{section.1}}
\@writefile{toc}{\contentsline {subsection}{\numberline {1.1}CONTEXTUALIZA\IeC {\c C}\IeC {\~A}O DO TEMA}{13}{subsection.1.1}}
\@writefile{brf}{\backcite{lane2010let}{{13}{1.1}{subsection.1.1}}}
\@writefile{brf}{\backcite{kadriu2013discovering}{{13}{1.1}{subsection.1.1}}}
\@writefile{brf}{\backcite{lynch2003institutional}{{13}{1.1}{subsection.1.1}}}
\@writefile{brf}{\backcite{fernandez2012semantic}{{13}{1.1}{subsection.1.1}}}
\@writefile{brf}{\backcite{burns2013institutional}{{13}{1.1}{subsection.1.1}}}
\@writefile{brf}{\backcite{edgar2010survey}{{13}{1.1}{subsection.1.1}}}
\@writefile{brf}{\backcite{bras2003organizaccao1}{{13}{1.1}{subsection.1.1}}}
\@writefile{brf}{\backcite{Statistics:2017}{{13}{1.1}{subsection.1.1}}}
\@writefile{brf}{\backcite{aboutPlataform:2017}{{13}{1.1}{figure.2}}}
\citation{silva2007organizaccao}
\citation{bonifacio2002ontologias}
\citation{da2009semantic}
\citation{Mena-Chalco2009}
\citation{aboutPgScriptLattes:2017}
\citation{mena2013prospecccao}
\citation{fernandez2012semantic}
\citation{ferraz2014use}
\citation{nigro2015uso}
\@writefile{lof}{\contentsline {figure}{\numberline {1}{\ignorespaces Quantidade de curr\IeC {\'\i }culos cadastrados por n\IeC {\'\i }vel de forma\IeC {\c c}\IeC {\~a}o}}{14}{figure.1}}
\newlabel{fig:quantidadeDeCurriculosPorNiveis}{{1}{14}{Quantidade de currículos cadastrados por nível de formação}{figure.1}{}}
\@writefile{brf}{\backcite{silva2007organizaccao}{{14}{1.1}{figure.2}}}
\@writefile{brf}{\backcite{bonifacio2002ontologias}{{14}{1.1}{figure.2}}}
\@writefile{brf}{\backcite{da2009semantic}{{14}{1.1}{figure.2}}}
\@writefile{brf}{\backcite{Mena-Chalco2009}{{14}{1.1}{figure.2}}}
\@writefile{brf}{\backcite{aboutPgScriptLattes:2017,mena2013prospecccao,fernandez2012semantic,ferraz2014use,nigro2015uso}{{14}{1.1}{figure.2}}}
\@writefile{brf}{\backcite{aboutPgScriptLattes:2017,mena2013prospecccao,fernandez2012semantic,ferraz2014use,nigro2015uso}{{14}{1.1}{figure.2}}}
\@writefile{brf}{\backcite{aboutPgScriptLattes:2017,mena2013prospecccao,fernandez2012semantic,ferraz2014use,nigro2015uso}{{14}{1.1}{figure.2}}}
\@writefile{brf}{\backcite{aboutPgScriptLattes:2017,mena2013prospecccao,fernandez2012semantic,ferraz2014use,nigro2015uso}{{14}{1.1}{figure.2}}}
\@writefile{brf}{\backcite{aboutPgScriptLattes:2017,mena2013prospecccao,fernandez2012semantic,ferraz2014use,nigro2015uso}{{14}{1.1}{figure.2}}}
\@writefile{lof}{\contentsline {figure}{\numberline {2}{\ignorespaces Quantidade estudantes }}{15}{figure.2}}
\newlabel{fig:quantidadeEstudantes}{{2}{15}{Quantidade estudantes}{figure.2}{}}
\@writefile{toc}{\contentsline {subsection}{\numberline {1.2}PROBLEMA DE PESQUISA}{15}{subsection.1.2}}
\@writefile{toc}{\contentsline {subsection}{\numberline {1.3}OBJETIVOS}{16}{subsection.1.3}}
\@writefile{toc}{\contentsline {subsubsection}{\numberline {1.3.1}Geral}{16}{subsubsection.1.3.1}}
\@writefile{toc}{\contentsline {subsubsection}{\numberline {1.3.2}Espec\IeC {\'\i }ficos}{16}{subsubsection.1.3.2}}
\@writefile{toc}{\contentsline {subsection}{\numberline {1.4}ESTRUTURA DO TRABALHO}{17}{subsection.1.4}}
\@setckpt{introducao}{
\setcounter{page}{18}
\setcounter{equation}{0}
\setcounter{enumi}{0}
\setcounter{enumii}{0}
\setcounter{enumiii}{0}
\setcounter{enumiv}{0}
\setcounter{footnote}{0}
\setcounter{mpfootnote}{0}
\setcounter{part}{0}
\setcounter{section}{1}
\setcounter{subsection}{4}
\setcounter{subsubsection}{0}
\setcounter{paragraph}{0}
\setcounter{subparagraph}{0}
\setcounter{figure}{2}
\setcounter{table}{0}
\setcounter{parentequation}{0}
\setcounter{Item}{0}
\setcounter{Hfootnote}{0}
\setcounter{bookmark@seq@number}{7}
\setcounter{ABCIaux}{0}
\setcounter{ABCImax}{0}
\setcounter{float@type}{4}
\setcounter{lofdepth}{1}
\setcounter{lotdepth}{1}
\setcounter{section@level}{2}
}
