\relax 
\providecommand\hyper@newdestlabel[2]{}
\citation{lane2010let}
\citation{kadriu2013discovering}
\citation{lynch2003institutional}
\citation{fernandez2012semantic}
\citation{burns2013institutional}
\citation{edgar2010survey}
\citation{bras2003organizaccao1}
\citation{Statistics:2017}
\citation{aboutPlataform:2017}
\@writefile{toc}{\contentsline {section}{\numberline {1}INTRODU\IeC {\c C}\IeC {\~A}O}{14}{section.1}}
\@writefile{toc}{\contentsline {subsection}{\numberline {1.1}CONTEXTUALIZA\IeC {\c C}\IeC {\~A}O DO TEMA}{14}{subsection.1.1}}
\@writefile{brf}{\backcite{lane2010let}{{14}{1.1}{subsection.1.1}}}
\@writefile{brf}{\backcite{kadriu2013discovering}{{14}{1.1}{subsection.1.1}}}
\@writefile{brf}{\backcite{lynch2003institutional}{{14}{1.1}{subsection.1.1}}}
\@writefile{brf}{\backcite{fernandez2012semantic}{{14}{1.1}{subsection.1.1}}}
\@writefile{brf}{\backcite{burns2013institutional}{{14}{1.1}{subsection.1.1}}}
\@writefile{brf}{\backcite{edgar2010survey}{{14}{1.1}{subsection.1.1}}}
\@writefile{brf}{\backcite{bras2003organizaccao1}{{14}{1.1}{subsection.1.1}}}
\@writefile{brf}{\backcite{Statistics:2017}{{14}{1.1}{subsection.1.1}}}
\@writefile{lof}{\contentsline {figure}{\numberline {1}{\ignorespaces Distribui\IeC {\c c}\IeC {\~a}o dos curr\IeC {\'\i }culos cadastrados na plataforma Lattes.}}{14}{figure.1}}
\newlabel{fig:quantidadeDeCurriculosPorNiveis}{{1}{14}{Distribuição dos currículos cadastrados na plataforma Lattes}{figure.1}{}}
\citation{silva2007organizaccao}
\citation{bonifacio2002ontologias}
\citation{da2009semantic}
\citation{Mena-Chalco2009}
\citation{aboutPgScriptLattes:2017}
\citation{mena2013prospecccao}
\citation{fernandez2012semantic}
\citation{ferraz2014use}
\citation{nigro2015uso}
\@writefile{brf}{\backcite{aboutPlataform:2017}{{15}{1.1}{figure.1}}}
\@writefile{brf}{\backcite{silva2007organizaccao}{{15}{1.1}{figure.1}}}
\@writefile{brf}{\backcite{bonifacio2002ontologias}{{15}{1.1}{figure.1}}}
\@writefile{brf}{\backcite{da2009semantic}{{15}{1.1}{figure.1}}}
\@writefile{brf}{\backcite{Mena-Chalco2009}{{15}{1.1}{figure.1}}}
\@writefile{brf}{\backcite{aboutPgScriptLattes:2017,mena2013prospecccao,fernandez2012semantic,ferraz2014use,nigro2015uso}{{15}{1.1}{figure.1}}}
\@writefile{brf}{\backcite{aboutPgScriptLattes:2017,mena2013prospecccao,fernandez2012semantic,ferraz2014use,nigro2015uso}{{15}{1.1}{figure.1}}}
\@writefile{brf}{\backcite{aboutPgScriptLattes:2017,mena2013prospecccao,fernandez2012semantic,ferraz2014use,nigro2015uso}{{15}{1.1}{figure.1}}}
\@writefile{brf}{\backcite{aboutPgScriptLattes:2017,mena2013prospecccao,fernandez2012semantic,ferraz2014use,nigro2015uso}{{15}{1.1}{figure.1}}}
\@writefile{brf}{\backcite{aboutPgScriptLattes:2017,mena2013prospecccao,fernandez2012semantic,ferraz2014use,nigro2015uso}{{15}{1.1}{figure.1}}}
\@writefile{toc}{\contentsline {subsection}{\numberline {1.2}PROBLEMA DE PESQUISA}{15}{subsection.1.2}}
\@writefile{toc}{\contentsline {subsection}{\numberline {1.3}OBJETIVOS}{16}{subsection.1.3}}
\@writefile{toc}{\contentsline {subsection}{\numberline {1.4}ESTRUTURA DO TRABALHO}{17}{subsection.1.4}}
\@setckpt{introducao}{
\setcounter{page}{18}
\setcounter{equation}{0}
\setcounter{enumi}{0}
\setcounter{enumii}{0}
\setcounter{enumiii}{0}
\setcounter{enumiv}{0}
\setcounter{footnote}{0}
\setcounter{mpfootnote}{0}
\setcounter{part}{0}
\setcounter{section}{1}
\setcounter{subsection}{4}
\setcounter{subsubsection}{0}
\setcounter{paragraph}{0}
\setcounter{subparagraph}{0}
\setcounter{figure}{1}
\setcounter{table}{0}
\setcounter{parentequation}{0}
\setcounter{Item}{0}
\setcounter{Hfootnote}{0}
\setcounter{bookmark@seq@number}{5}
\setcounter{ABCIaux}{0}
\setcounter{ABCImax}{0}
\setcounter{float@type}{4}
\setcounter{lofdepth}{1}
\setcounter{lotdepth}{1}
\setcounter{section@level}{2}
}
