\select@language {brazil}
\contentsline {table}{\numberline {1}{\ignorespaces Estrutura do conjunto de dados}}{33}{table.1}
\contentsline {table}{\numberline {2}{\ignorespaces Par\IeC {\^a}metros de configura\IeC {\c c}\IeC {\~o}es do ScriptSucupira}}{37}{table.2}
\contentsline {table}{\numberline {7}{\ignorespaces Cronograma para defesa}}{65}{table.7}
\contentsline {table}{\numberline {3}{\ignorespaces Programas \IeC {\'a}rea interdisciplinar com nota CAPES $3$}}{66}{table.3}
\contentsline {table}{\numberline {4}{\ignorespaces Programas \IeC {\'a}rea interdisciplinar com nota CAPES $4$}}{67}{table.4}
\contentsline {table}{\numberline {5}{\ignorespaces Programas \IeC {\'a}rea interdisciplinar com nota CAPES $7$}}{67}{table.5}
\contentsline {table}{\numberline {6}{\ignorespaces Programa \IeC {\'a}rea interdisciplinar com nota CAPES $6$}}{67}{table.6}
